2016-04-27 00:06:34,515 Starting new HTTPS connection (1): 20.10.82.120
2016-04-27 00:06:34,528 Setting read timeout to None
2016-04-27 00:06:34,633 "POST /client/api?response=json& HTTP/1.1" 531 159
2016-04-27 00:06:34,638 Setting read timeout to None
2016-04-27 00:06:34,640 "GET /client/api?response=json&command=listUsers HTTP/1.1" 401 143
2016-04-27 00:07:55,638 Starting new HTTPS connection (1): 20.10.94.20
2016-04-27 00:07:55,649 Setting read timeout to None
2016-04-27 00:07:55,755 "POST /client/api?response=json& HTTP/1.1" 531 159
2016-04-27 00:07:55,760 Setting read timeout to None
2016-04-27 00:07:55,764 "GET /client/api?response=json&command=listUsers HTTP/1.1" 401 143
2016-04-27 00:11:15,275 Starting new HTTPS connection (1): 20.10.94.20
2016-04-27 00:11:15,284 Setting read timeout to None
2016-04-27 00:11:15,390 "POST /client/api?response=json& HTTP/1.1" 531 159
2016-04-27 00:11:15,395 Setting read timeout to None
2016-04-27 00:11:15,398 "GET /client/api?response=json&command=listUsers HTTP/1.1" 401 143
2016-04-27 11:46:13,446 Starting new HTTPS connection (1): 20.10.94.20
2016-04-27 11:46:13,457 Setting read timeout to None
2016-04-27 11:46:13,563 "POST /client/api?response=json& HTTP/1.1" 531 159
2016-04-27 11:46:13,568 Setting read timeout to None
2016-04-27 11:46:13,571 "GET /client/api?response=json&command=listUsers HTTP/1.1" 401 143
2016-04-27 11:48:05,127 Starting new HTTPS connection (1): 20.10.94.20
2016-04-27 11:48:05,135 Setting read timeout to None
2016-04-27 11:48:05,299 "POST /client/api?response=json& HTTP/1.1" 200 432
2016-04-27 11:48:05,304 Setting read timeout to None
2016-04-27 11:48:05,317 "GET /client/api?response=json&command=listUsers HTTP/1.1" 200 646
